%YAML 1.1
%TAG !u! tag:unity3d.com,2011:
--- !u!114 &11400000
MonoBehaviour:
  m_ObjectHideFlags: 0
  m_CorrespondingSourceObject: {fileID: 0}
  m_PrefabInstance: {fileID: 0}
  m_PrefabAsset: {fileID: 0}
  m_GameObject: {fileID: 0}
  m_Enabled: 1
  m_EditorHideFlags: 0
  m_Script: {fileID: 11500000, guid: c9bc43e142692db4e92eef81e1903ca4, type: 3}
  m_Name: Desert
  m_EditorClassIdentifier: 
  groups:
  - name: Dunes
    comment: Drag in generators to group them
    color: {r: 0.625, g: 0.625, b: 0.625, a: 1}
    guiPos: {x: -698.87915, y: -400.14722}
    guiSize: {x: 530.4982, y: 723.12524}
  random:
    seed: 12345
    subSeed: 0
  guiScrollPivot: {x: -123, y: -139.5}
  changeVersion: 2398
  serializedVersion: 0
  serializer200beta:
    serializedData:
    - refId: 0
      type: MapMagic.Nodes.GraphSerializer200Beta+SerializedDataProt, MapMagic, Version=0.0.0.0,
        Culture=neutral, PublicKeyToken=null
      altType: 
      fields:
      - ver
      - generators
      - linkInlets
      - linkOutlets
      - groups
      - exposed
      values:
      - t: 255
        v: 1
      - t: 255
        v: 2
      - t: 255
        v: 62
      - t: 255
        v: 63
      - t: 255
        v: 64
      - t: 255
        v: 71
      special: 
      uniObj: {fileID: 0}
    - refId: 1
      type: Den.Tools.SemVer, Tools, Version=0.0.0.0, Culture=neutral, PublicKeyToken=null
      altType: 
      fields:
      - major
      - minor
      - prt
      - patch
      - hash
      - summary
      values:
      - t: 4
        v: 2
      - t: 4
        v: 0
      - t: 4
        v: 4
      - t: 4
        v: 0
      - t: 1
        v: 262146
      - t: 6
        v: 262146
      special: 
      uniObj: {fileID: 0}
    - refId: 2
      type: MapMagic.Nodes.Generator[], MapMagic, Version=0.0.0.0, Culture=neutral,
        PublicKeyToken=null
      altType: 
      fields: []
      values:
      - t: 255
        v: 3
      - t: 255
        v: 9
      - t: 255
        v: 14
      - t: 255
        v: 18
      - t: 255
        v: 25
      - t: 255
        v: 29
      - t: 255
        v: 44
      - t: 255
        v: 53
      - t: 255
        v: 58
      special: 
      uniObj: {fileID: 0}
    - refId: 3
      type: MapMagic.Nodes.MatrixGenerators.Noise200, MapMagic, Version=0.0.0.0, Culture=neutral,
        PublicKeyToken=null
      altType: MapMagic.Nodes.Placeholders+InletOutletPlaceholder, MapMagic, Version=0.0.0.0,
        Culture=neutral, PublicKeyToken=null
      fields:
      - type
      - seed
      - intensity
      - size
      - detail
      - turbulence
      - offset
      - enabled
      - guid
      - draftTime
      - mainTime
      - guiPosition
      - guiSize
      - guiPreview
      values:
      - t: 255
        v: 4
      - t: 1
        v: 12345
      - t: 2
        v: 1050253722
      - t: 2
        v: 1145569280
      - t: 2
        v: 1045220557
      - t: 2
        v: 1065353216
      - t: 255
        v: 5
      - t: 3
        v: 1
      - t: 255
        v: 6
      - t: 9
        v: 4615259174371743656
      - t: 9
        v: 4638059421541492746
      - t: 255
        v: 7
      - t: 255
        v: 8
      - t: 3
        v: 0
      special: 
      uniObj: {fileID: 0}
    - refId: 4
      type: MapMagic.Nodes.MatrixGenerators.Noise200+Type, MapMagic, Version=0.0.0.0,
        Culture=neutral, PublicKeyToken=null
      altType: 
      fields:
      - value__
      values:
      - t: 1
        v: 3
      special: 
      uniObj: {fileID: 0}
    - refId: 5
      type: Den.Tools.Vector2D, Tools, Version=0.0.0.0, Culture=neutral, PublicKeyToken=null
      altType: 
      fields:
      - x
      - z
      values:
      - t: 2
        v: 0
      - t: 2
        v: 0
      special: 
      uniObj: {fileID: 0}
    - refId: 6
      type: System.Guid, mscorlib, Version=4.0.0.0, Culture=neutral, PublicKeyToken=b77a5c561934e089
      altType: 
      fields: []
      values: []
      special: e79d0014-9cee-4200-9bb4-428eccef4ded
      uniObj: {fileID: 0}
    - refId: 7
      type: UnityEngine.Vector2, UnityEngine.CoreModule, Version=0.0.0.0, Culture=neutral,
        PublicKeyToken=null
      altType: 
      fields:
      - x
      - y
      values:
      - t: 2
        v: 3289263543
      - t: 2
        v: 3268093074
      special: 
      uniObj: {fileID: 0}
    - refId: 8
      type: UnityEngine.Vector2, UnityEngine.CoreModule, Version=0.0.0.0, Culture=neutral,
        PublicKeyToken=null
      altType: 
      fields:
      - x
      - y
      values:
      - t: 2
        v: 1124204544
      - t: 2
        v: 1127350272
      special: 
      uniObj: {fileID: 0}
    - refId: 9
      type: MapMagic.Nodes.MatrixGenerators.HeightOutput200, MapMagic, Version=0.0.0.0,
        Culture=neutral, PublicKeyToken=null
      altType: MapMagic.Nodes.Placeholders+InletOutletPlaceholder, MapMagic, Version=0.0.0.0,
        Culture=neutral, PublicKeyToken=null
      fields:
      - outputLevel
      - guiApplyType
      - enabled
      - guid
      - draftTime
      - mainTime
      - guiPosition
      - guiSize
      - guiPreview
      values:
      - t: 255
        v: 10
      - t: 3
        v: 0
      - t: 3
        v: 1
      - t: 255
        v: 11
      - t: 9
        v: 4571953461074874440
      - t: 9
        v: 4574144011933627449
      - t: 255
        v: 12
      - t: 255
        v: 13
      - t: 3
        v: 0
      special: 
      uniObj: {fileID: 0}
    - refId: 10
      type: MapMagic.Nodes.OutputLevel, MapMagic, Version=0.0.0.0, Culture=neutral,
        PublicKeyToken=null
      altType: 
      fields:
      - value__
      values:
      - t: 1
        v: 3
      special: 
      uniObj: {fileID: 0}
    - refId: 11
      type: System.Guid, mscorlib, Version=4.0.0.0, Culture=neutral, PublicKeyToken=b77a5c561934e089
      altType: 
      fields: []
      values: []
      special: 03f585f0-5110-4f10-bebf-0b3e47bd125d
      uniObj: {fileID: 0}
    - refId: 12
      type: UnityEngine.Vector2, UnityEngine.CoreModule, Version=0.0.0.0, Culture=neutral,
        PublicKeyToken=null
      altType: 
      fields:
      - x
      - y
      values:
      - t: 2
        v: 1112407578
      - t: 2
        v: 3279130729
      special: 
      uniObj: {fileID: 0}
    - refId: 13
      type: UnityEngine.Vector2, UnityEngine.CoreModule, Version=0.0.0.0, Culture=neutral,
        PublicKeyToken=null
      altType: 
      fields:
      - x
      - y
      values:
      - t: 2
        v: 1124204544
      - t: 2
        v: 1118044160
      special: 
      uniObj: {fileID: 0}
    - refId: 14
      type: MapMagic.Nodes.MatrixGenerators.Noise200, MapMagic, Version=0.0.0.0, Culture=neutral,
        PublicKeyToken=null
      altType: MapMagic.Nodes.Placeholders+InletOutletPlaceholder, MapMagic, Version=0.0.0.0,
        Culture=neutral, PublicKeyToken=null
      fields:
      - type
      - seed
      - intensity
      - size
      - detail
      - turbulence
      - offset
      - enabled
      - guid
      - draftTime
      - mainTime
      - guiPosition
      - guiSize
      - guiPreview
      values:
      - t: 255
        v: 4
      - t: 1
        v: 435
      - t: 2
        v: 1050253722
      - t: 2
        v: 1142292480
      - t: 2
        v: 1045220557
      - t: 2
        v: 1065353216
      - t: 255
        v: 15
      - t: 3
        v: 1
      - t: 255
        v: 16
      - t: 9
        v: 4613022911976772836
      - t: 9
        v: 4638447533313130234
      - t: 255
        v: 17
      - t: 255
        v: 8
      - t: 3
        v: 0
      special: 
      uniObj: {fileID: 0}
    - refId: 15
      type: Den.Tools.Vector2D, Tools, Version=0.0.0.0, Culture=neutral, PublicKeyToken=null
      altType: 
      fields:
      - x
      - z
      values:
      - t: 2
        v: 1148846080
      - t: 2
        v: 0
      special: 
      uniObj: {fileID: 0}
    - refId: 16
      type: System.Guid, mscorlib, Version=4.0.0.0, Culture=neutral, PublicKeyToken=b77a5c561934e089
      altType: 
      fields: []
      values: []
      special: f7c08f54-d27a-42e9-bc3d-372ea37f7b56
      uniObj: {fileID: 0}
    - refId: 17
      type: UnityEngine.Vector2, UnityEngine.CoreModule, Version=0.0.0.0, Culture=neutral,
        PublicKeyToken=null
      altType: 
      fields:
      - x
      - y
      values:
      - t: 2
        v: 3289652291
      - t: 2
        v: 3282703064
      special: 
      uniObj: {fileID: 0}
    - refId: 18
      type: MapMagic.Nodes.MatrixGenerators.Mask200, MapMagic, Version=0.0.0.0, Culture=neutral,
        PublicKeyToken=null
      altType: MapMagic.Nodes.Placeholders+InletOutletPlaceholder, MapMagic, Version=0.0.0.0,
        Culture=neutral, PublicKeyToken=null
      fields:
      - aIn
      - bIn
      - maskIn
      - invert
      - enabled
      - guid
      - draftTime
      - mainTime
      - guiPosition
      - guiSize
      - guiPreview
      values:
      - t: 255
        v: 19
      - t: 255
        v: 20
      - t: 255
        v: 21
      - t: 3
        v: 0
      - t: 3
        v: 1
      - t: 255
        v: 22
      - t: 9
        v: 4584073548392053919
      - t: 9
        v: 4608109709963292993
      - t: 255
        v: 23
      - t: 255
        v: 24
      - t: 3
        v: 0
      special: 
      uniObj: {fileID: 0}
    - refId: 19
      type: MapMagic.Nodes.Inlet`1[[Den.Tools.Matrices.MatrixWorld, Tools, Version=0.0.0.0]],
        MapMagic, Version=0.0.0.0
      altType: 
      fields:
      - <Gen>k__BackingField
      values:
      - t: 255
        v: 18
      special: 
      uniObj: {fileID: 0}
    - refId: 20
      type: MapMagic.Nodes.Inlet`1[[Den.Tools.Matrices.MatrixWorld, Tools, Version=0.0.0.0]],
        MapMagic, Version=0.0.0.0
      altType: 
      fields:
      - <Gen>k__BackingField
      values:
      - t: 255
        v: 18
      special: 
      uniObj: {fileID: 0}
    - refId: 21
      type: MapMagic.Nodes.Inlet`1[[Den.Tools.Matrices.MatrixWorld, Tools, Version=0.0.0.0]],
        MapMagic, Version=0.0.0.0
      altType: 
      fields:
      - <Gen>k__BackingField
      values:
      - t: 255
        v: 18
      special: 
      uniObj: {fileID: 0}
    - refId: 22
      type: System.Guid, mscorlib, Version=4.0.0.0, Culture=neutral, PublicKeyToken=b77a5c561934e089
      altType: 
      fields: []
      values: []
      special: 05a8f3aa-eb70-4286-b7f0-55f830c98419
      uniObj: {fileID: 0}
    - refId: 23
      type: UnityEngine.Vector2, UnityEngine.CoreModule, Version=0.0.0.0, Culture=neutral,
        PublicKeyToken=null
      altType: 
      fields:
      - x
      - y
      values:
      - t: 2
        v: 3282186434
      - t: 2
        v: 3269709628
      special: 
      uniObj: {fileID: 0}
    - refId: 24
      type: UnityEngine.Vector2, UnityEngine.CoreModule, Version=0.0.0.0, Culture=neutral,
        PublicKeyToken=null
      altType: 
      fields:
      - x
      - y
      values:
      - t: 2
        v: 1124204544
      - t: 2
        v: 1121189888
      special: 
      uniObj: {fileID: 0}
    - refId: 25
      type: MapMagic.Nodes.MatrixGenerators.Noise200, MapMagic, Version=0.0.0.0, Culture=neutral,
        PublicKeyToken=null
      altType: MapMagic.Nodes.Placeholders+InletOutletPlaceholder, MapMagic, Version=0.0.0.0,
        Culture=neutral, PublicKeyToken=null
      fields:
      - type
      - seed
      - intensity
      - size
      - detail
      - turbulence
      - offset
      - enabled
      - guid
      - draftTime
      - mainTime
      - guiPosition
      - guiSize
      - guiPreview
      values:
      - t: 255
        v: 26
      - t: 1
        v: 123
      - t: 2
        v: 1065353216
      - t: 2
        v: 1142292480
      - t: 2
        v: 0
      - t: 2
        v: 0
      - t: 255
        v: 5
      - t: 3
        v: 1
      - t: 255
        v: 27
      - t: 9
        v: 4607396790142280244
      - t: 9
        v: 4634112931261776816
      - t: 255
        v: 28
      - t: 255
        v: 8
      - t: 3
        v: 0
      special: 
      uniObj: {fileID: 0}
    - refId: 26
      type: MapMagic.Nodes.MatrixGenerators.Noise200+Type, MapMagic, Version=0.0.0.0,
        Culture=neutral, PublicKeyToken=null
      altType: 
      fields:
      - value__
      values:
      - t: 1
        v: 2
      special: 
      uniObj: {fileID: 0}
    - refId: 27
      type: System.Guid, mscorlib, Version=4.0.0.0, Culture=neutral, PublicKeyToken=b77a5c561934e089
      altType: 
      fields: []
      values: []
      special: e5459dcb-701f-4123-b217-1419f1cdaf32
      uniObj: {fileID: 0}
    - refId: 28
      type: UnityEngine.Vector2, UnityEngine.CoreModule, Version=0.0.0.0, Culture=neutral,
        PublicKeyToken=null
      altType: 
      fields:
      - x
      - y
      values:
      - t: 2
        v: 3291068484
      - t: 2
        v: 1121580223
      special: 
      uniObj: {fileID: 0}
    - refId: 29
      type: MapMagic.Nodes.MatrixGenerators.Curve200, MapMagic, Version=0.0.0.0, Culture=neutral,
        PublicKeyToken=null
      altType: MapMagic.Nodes.Placeholders+InletOutletPlaceholder, MapMagic, Version=0.0.0.0,
        Culture=neutral, PublicKeyToken=null
      fields:
      - curve
      - enabled
      - guid
      - draftTime
      - mainTime
      - guiPosition
      - guiSize
      - guiPreview
      values:
      - t: 255
        v: 30
      - t: 3
        v: 1
      - t: 255
        v: 41
      - t: 9
        v: 4596269296182973222
      - t: 9
        v: 4620980997698317871
      - t: 255
        v: 42
      - t: 255
        v: 43
      - t: 3
        v: 0
      special: 
      uniObj: {fileID: 0}
    - refId: 30
      type: Den.Tools.Curve, Tools, Version=0.0.0.0, Culture=neutral, PublicKeyToken=null
      altType: 
      fields:
      - points
      - lut
      values:
      - t: 255
        v: 31
      - t: 255
        v: 40
      special: 
      uniObj: {fileID: 0}
    - refId: 31
      type: Den.Tools.Curve+Node[], Tools, Version=0.0.0.0, Culture=neutral, PublicKeyToken=null
      altType: 
      fields: []
      values:
      - t: 255
        v: 32
      - t: 255
        v: 34
      - t: 255
        v: 36
      - t: 255
        v: 38
      special: 
      uniObj: {fileID: 0}
    - refId: 32
      type: Den.Tools.Curve+Node, Tools, Version=0.0.0.0, Culture=neutral, PublicKeyToken=null
      altType: 
      fields:
      - pos
      - inTangent
      - outTangent
      - linear
      values:
      - t: 255
        v: 33
      - t: 2
        v: 0
      - t: 2
        v: 3214638540
      - t: 3
        v: 1
      special: 
      uniObj: {fileID: 0}
    - refId: 33
      type: UnityEngine.Vector2, UnityEngine.CoreModule, Version=0.0.0.0, Culture=neutral,
        PublicKeyToken=null
      altType: 
      fields:
      - x
      - y
      values:
      - t: 2
        v: 0
      - t: 2
        v: 0
      special: 
      uniObj: {fileID: 0}
    - refId: 34
      type: Den.Tools.Curve+Node, Tools, Version=0.0.0.0, Culture=neutral, PublicKeyToken=null
      altType: 
      fields:
      - pos
      - inTangent
      - outTangent
      - linear
      values:
      - t: 255
        v: 35
      - t: 2
        v: 1071045263
      - t: 2
        v: 1071045263
      - t: 3
        v: 0
      special: 
      uniObj: {fileID: 0}
    - refId: 35
      type: UnityEngine.Vector2, UnityEngine.CoreModule, Version=0.0.0.0, Culture=neutral,
        PublicKeyToken=null
      altType: 
      fields:
      - x
      - y
      values:
      - t: 2
        v: 1052736204
      - t: 2
        v: 1035049659
      special: 
      uniObj: {fileID: 0}
    - refId: 36
      type: Den.Tools.Curve+Node, Tools, Version=0.0.0.0, Culture=neutral, PublicKeyToken=null
      altType: 
      fields:
      - pos
      - inTangent
      - outTangent
      - linear
      values:
      - t: 255
        v: 37
      - t: 2
        v: 1073306283
      - t: 2
        v: 1073306283
      - t: 3
        v: 0
      special: 
      uniObj: {fileID: 0}
    - refId: 37
      type: UnityEngine.Vector2, UnityEngine.CoreModule, Version=0.0.0.0, Culture=neutral,
        PublicKeyToken=null
      altType: 
      fields:
      - x
      - y
      values:
      - t: 2
        v: 1057987609
      - t: 2
        v: 1061624946
      special: 
      uniObj: {fileID: 0}
    - refId: 38
      type: Den.Tools.Curve+Node, Tools, Version=0.0.0.0, Culture=neutral, PublicKeyToken=null
      altType: 
      fields:
      - pos
      - inTangent
      - outTangent
      - linear
      values:
      - t: 255
        v: 39
      - t: 2
        v: 3207236611
      - t: 2
        v: 0
      - t: 3
        v: 1
      special: 
      uniObj: {fileID: 0}
    - refId: 39
      type: UnityEngine.Vector2, UnityEngine.CoreModule, Version=0.0.0.0, Culture=neutral,
        PublicKeyToken=null
      altType: 
      fields:
      - x
      - y
      values:
      - t: 2
        v: 1065353216
      - t: 2
        v: 1065353216
      special: 
      uniObj: {fileID: 0}
    - refId: 40
      type: System.Single[], mscorlib, Version=4.0.0.0, Culture=neutral, PublicKeyToken=b77a5c561934e089
      altType: 
      fields: []
      values:
      - t: 2
        v: 0
      - t: 2
        v: 3147441888
      - t: 2
        v: 3155702745
      - t: 2
        v: 3160498489
      - t: 2
        v: 3163835851
      - t: 2
        v: 3166105973
      - t: 2
        v: 3168312220
      - t: 2
        v: 3170454592
      - t: 2
        v: 3171713457
      - t: 2
        v: 3172720767
      - t: 2
        v: 3173696139
      - t: 2
        v: 3174639575
      - t: 2
        v: 3175551072
      - t: 2
        v: 3176430631
      - t: 2
        v: 3177278253
      - t: 2
        v: 3178093938
      - t: 2
        v: 3178877685
      - t: 2
        v: 3179455962
      - t: 2
        v: 3179815898
      - t: 2
        v: 3180159865
      - t: 2
        v: 3180487862
      - t: 2
        v: 3180799892
      - t: 2
        v: 3181095952
      - t: 2
        v: 3181376043
      - t: 2
        v: 3181640165
      - t: 2
        v: 3181888319
      - t: 2
        v: 3182120504
      - t: 2
        v: 3182336721
      - t: 2
        v: 3182536968
      - t: 2
        v: 3182721247
      - t: 2
        v: 3182889556
      - t: 2
        v: 3183041896
      - t: 2
        v: 3183178269
      - t: 2
        v: 3183298671
      - t: 2
        v: 3183403106
      - t: 2
        v: 3183491571
      - t: 2
        v: 3183564066
      - t: 2
        v: 3183620595
      - t: 2
        v: 3183661152
      - t: 2
        v: 3183685743
      - t: 2
        v: 3183694364
      - t: 2
        v: 3183687017
      - t: 2
        v: 3183663700
      - t: 2
        v: 3183624414
      - t: 2
        v: 3183569160
      - t: 2
        v: 3183497936
      - t: 2
        v: 3183410745
      - t: 2
        v: 3183307584
      - t: 2
        v: 3183188454
      - t: 2
        v: 3183053354
      - t: 2
        v: 3182902288
      - t: 2
        v: 3182735253
      - t: 2
        v: 3182552246
      - t: 2
        v: 3182353273
      - t: 2
        v: 3182138331
      - t: 2
        v: 3181907419
      - t: 2
        v: 3181660538
      - t: 2
        v: 3181397688
      - t: 2
        v: 3181118871
      - t: 2
        v: 3180824082
      - t: 2
        v: 3180513328
      - t: 2
        v: 3180186603
      - t: 2
        v: 3179843909
      - t: 2
        v: 3179485246
      - t: 2
        v: 3178938797
      - t: 2
        v: 3178157594
      - t: 2
        v: 3177344458
      - t: 2
        v: 3176499388
      - t: 2
        v: 3175622370
      - t: 2
        v: 3174713419
      - t: 2
        v: 3173772528
      - t: 2
        v: 3172799708
      - t: 2
        v: 3171794938
      - t: 2
        v: 3170622655
      - t: 2
        v: 3168485372
      - t: 2
        v: 3166284223
      - t: 2
        v: 3164019191
      - t: 2
        v: 3160875362
      - t: 2
        v: 3156089782
      - t: 2
        v: 3148236369
      - t: 2
        v: 3116822629
      - t: 2
        v: 999378540
      - t: 2
        v: 1008302313
      - t: 2
        v: 1013726599
      - t: 2
        v: 1017150127
      - t: 2
        v: 1019990034
      - t: 2
        v: 1022893821
      - t: 2
        v: 1024635821
      - t: 2
        v: 1026151591
      - t: 2
        v: 1027699298
      - t: 2
        v: 1029278942
      - t: 2
        v: 1030890524
      - t: 2
        v: 1032166409
      - t: 2
        v: 1033004138
      - t: 2
        v: 1033857836
      - t: 2
        v: 1034727502
      - t: 2
        v: 1035635367
      - t: 2
        v: 1036660045
      - t: 2
        v: 1037803821
      - t: 2
        v: 1039061467
      - t: 2
        v: 1040307572
      - t: 2
        v: 1041042421
      - t: 2
        v: 1041826361
      - t: 2
        v: 1042656777
      - t: 2
        v: 1043531056
      - t: 2
        v: 1044446582
      - t: 2
        v: 1045400741
      - t: 2
        v: 1046390918
      - t: 2
        v: 1047414501
      - t: 2
        v: 1048468871
      - t: 2
        v: 1049063709
      - t: 2
        v: 1049617762
      - t: 2
        v: 1050183288
      - t: 2
        v: 1050758980
      - t: 2
        v: 1051343530
      - t: 2
        v: 1051935631
      - t: 2
        v: 1052533976
      - t: 2
        v: 1053137259
      - t: 2
        v: 1053744168
      - t: 2
        v: 1054353403
      - t: 2
        v: 1054963649
      - t: 2
        v: 1055573606
      - t: 2
        v: 1056181962
      - t: 2
        v: 1056787412
      - t: 2
        v: 1057176627
      - t: 2
        v: 1057474484
      - t: 2
        v: 1057768926
      - t: 2
        v: 1058059300
      - t: 2
        v: 1058344955
      - t: 2
        v: 1058625233
      - t: 2
        v: 1058899480
      - t: 2
        v: 1059167047
      - t: 2
        v: 1059427276
      - t: 2
        v: 1059679516
      - t: 2
        v: 1059923112
      - t: 2
        v: 1060157412
      - t: 2
        v: 1060381760
      - t: 2
        v: 1060595504
      - t: 2
        v: 1060797991
      - t: 2
        v: 1060988566
      - t: 2
        v: 1061166575
      - t: 2
        v: 1061331366
      - t: 2
        v: 1061482284
      - t: 2
        v: 1061618676
      - t: 2
        v: 1061745956
      - t: 2
        v: 1061871216
      - t: 2
        v: 1061994481
      - t: 2
        v: 1062115759
      - t: 2
        v: 1062235059
      - t: 2
        v: 1062352390
      - t: 2
        v: 1062467759
      - t: 2
        v: 1062581177
      - t: 2
        v: 1062692650
      - t: 2
        v: 1062802187
      - t: 2
        v: 1062909797
      - t: 2
        v: 1063015489
      - t: 2
        v: 1063119270
      - t: 2
        v: 1063221151
      - t: 2
        v: 1063321137
      - t: 2
        v: 1063419239
      - t: 2
        v: 1063515465
      - t: 2
        v: 1063609823
      - t: 2
        v: 1063702322
      - t: 2
        v: 1063792970
      - t: 2
        v: 1063881776
      - t: 2
        v: 1063968748
      - t: 2
        v: 1064053895
      - t: 2
        v: 1064137226
      - t: 2
        v: 1064218748
      - t: 2
        v: 1064298469
      - t: 2
        v: 1064376401
      - t: 2
        v: 1064452548
      - t: 2
        v: 1064526922
      - t: 2
        v: 1064599530
      - t: 2
        v: 1064670380
      - t: 2
        v: 1064739482
      - t: 2
        v: 1064806844
      - t: 2
        v: 1064872474
      - t: 2
        v: 1064936380
      - t: 2
        v: 1064998570
      - t: 2
        v: 1065059056
      - t: 2
        v: 1065117842
      - t: 2
        v: 1065174941
      - t: 2
        v: 1065230357
      - t: 2
        v: 1065284101
      - t: 2
        v: 1065336181
      - t: 2
        v: 1065369911
      - t: 2
        v: 1065394300
      - t: 2
        v: 1065417870
      - t: 2
        v: 1065440625
      - t: 2
        v: 1065462568
      - t: 2
        v: 1065483706
      - t: 2
        v: 1065504041
      - t: 2
        v: 1065523578
      - t: 2
        v: 1065542321
      - t: 2
        v: 1065560275
      - t: 2
        v: 1065577444
      - t: 2
        v: 1065593832
      - t: 2
        v: 1065609442
      - t: 2
        v: 1065624281
      - t: 2
        v: 1065638351
      - t: 2
        v: 1065651656
      - t: 2
        v: 1065664203
      - t: 2
        v: 1065675993
      - t: 2
        v: 1065687032
      - t: 2
        v: 1065697324
      - t: 2
        v: 1065706874
      - t: 2
        v: 1065715684
      - t: 2
        v: 1065723760
      - t: 2
        v: 1065731107
      - t: 2
        v: 1065737727
      - t: 2
        v: 1065743626
      - t: 2
        v: 1065748807
      - t: 2
        v: 1065753275
      - t: 2
        v: 1065757035
      - t: 2
        v: 1065760090
      - t: 2
        v: 1065762444
      - t: 2
        v: 1065764102
      - t: 2
        v: 1065765069
      - t: 2
        v: 1065765347
      - t: 2
        v: 1065764942
      - t: 2
        v: 1065763859
      - t: 2
        v: 1065762100
      - t: 2
        v: 1065759670
      - t: 2
        v: 1065756575
      - t: 2
        v: 1065752817
      - t: 2
        v: 1065748401
      - t: 2
        v: 1065743331
      - t: 2
        v: 1065737612
      - t: 2
        v: 1065731248
      - t: 2
        v: 1065724242
      - t: 2
        v: 1065716600
      - t: 2
        v: 1065708326
      - t: 2
        v: 1065699423
      - t: 2
        v: 1065689897
      - t: 2
        v: 1065679751
      - t: 2
        v: 1065668988
      - t: 2
        v: 1065657615
      - t: 2
        v: 1065645635
      - t: 2
        v: 1065633052
      - t: 2
        v: 1065619871
      - t: 2
        v: 1065606096
      - t: 2
        v: 1065591730
      - t: 2
        v: 1065576778
      - t: 2
        v: 1065561245
      - t: 2
        v: 1065545135
      - t: 2
        v: 1065528452
      - t: 2
        v: 1065511200
      - t: 2
        v: 1065493383
      - t: 2
        v: 1065475006
      - t: 2
        v: 1065456073
      - t: 2
        v: 1065436588
      - t: 2
        v: 1065416556
      - t: 2
        v: 1065395981
      - t: 2
        v: 1065374866
      - t: 2
        v: 1065353216
      special: 
      uniObj: {fileID: 0}
    - refId: 41
      type: System.Guid, mscorlib, Version=4.0.0.0, Culture=neutral, PublicKeyToken=b77a5c561934e089
      altType: 
      fields: []
      values: []
      special: 4a07fc51-cc6d-43a6-b457-3018c24c2c03
      uniObj: {fileID: 0}
    - refId: 42
      type: UnityEngine.Vector2, UnityEngine.CoreModule, Version=0.0.0.0, Culture=neutral,
        PublicKeyToken=null
      altType: 
      fields:
      - x
      - y
      values:
      - t: 2
        v: 3287473006
      - t: 2
        v: 1120678084
      special: 
      uniObj: {fileID: 0}
    - refId: 43
      type: UnityEngine.Vector2, UnityEngine.CoreModule, Version=0.0.0.0, Culture=neutral,
        PublicKeyToken=null
      altType: 
      fields:
      - x
      - y
      values:
      - t: 2
        v: 1124204544
      - t: 2
        v: 1126432768
      special: 
      uniObj: {fileID: 0}
    - refId: 44
      type: MapMagic.Nodes.MatrixGenerators.TexturesOutput200, MapMagic, Version=0.0.0.0,
        Culture=neutral, PublicKeyToken=null
      altType: MapMagic.Nodes.Placeholders+InletOutletPlaceholder, MapMagic, Version=0.0.0.0,
        Culture=neutral, PublicKeyToken=null
      fields:
      - guiExpanded
      - outputLevel
      - layers
      - enabled
      - guid
      - draftTime
      - mainTime
      - guiPosition
      - guiSize
      - guiPreview
      values:
      - t: 1
        v: 0
      - t: 255
        v: 10
      - t: 255
        v: 45
      - t: 3
        v: 1
      - t: 255
        v: 50
      - t: 9
        v: 4593448241376388343
      - t: 9
        v: 4619986940670566518
      - t: 255
        v: 51
      - t: 255
        v: 52
      - t: 3
        v: 0
      special: 
      uniObj: {fileID: 0}
    - refId: 45
      type: MapMagic.Nodes.MatrixGenerators.TexturesOutput200+TextureLayer[], MapMagic,
        Version=0.0.0.0, Culture=neutral, PublicKeyToken=null
      altType: MapMagic.Nodes.Placeholders+InletOutletPlaceholder[], MapMagic, Version=0.0.0.0,
        Culture=neutral, PublicKeyToken=null
      fields: []
      values:
      - t: 255
        v: 46
      special: 
      uniObj: {fileID: 0}
    - refId: 46
      type: MapMagic.Nodes.MatrixGenerators.TexturesOutput200+TextureLayer, MapMagic,
        Version=0.0.0.0, Culture=neutral, PublicKeyToken=null
      altType: MapMagic.Nodes.Placeholders+InletOutletPlaceholder, MapMagic, Version=0.0.0.0,
        Culture=neutral, PublicKeyToken=null
      fields:
      - prototype
      - color
      - guiProperties
      - guiRemapping
      - guiTileSettings
      - name
      - channelNum
      - gen
      values:
      - t: 255
        v: 47
      - t: 255
        v: 48
      - t: 3
        v: 0
      - t: 3
        v: 0
      - t: 3
        v: 0
      - t: 255
        v: 49
      - t: 1
        v: 0
      - t: 255
        v: 44
      special: 
      uniObj: {fileID: 0}
    - refId: 47
      type: UnityEngine.TerrainLayer, UnityEngine.TerrainModule, Version=0.0.0.0,
        Culture=neutral, PublicKeyToken=null
      altType: 
      fields: []
      values: []
      special: 
      uniObj: {fileID: 8574412962073106934, guid: 8286623663149cd4dbe4d8caa20c6fd7,
        type: 2}
    - refId: 48
      type: UnityEngine.Color, UnityEngine.CoreModule, Version=0.0.0.0, Culture=neutral,
        PublicKeyToken=null
      altType: 
      fields:
      - r
      - g
      - b
      - a
      values:
      - t: 2
        v: 1061158912
      - t: 2
        v: 1061158912
      - t: 2
        v: 1061158912
      - t: 2
        v: 1065353216
      special: 
      uniObj: {fileID: 0}
    - refId: 49
      type: System.String, mscorlib, Version=4.0.0.0, Culture=neutral, PublicKeyToken=b77a5c561934e089
      altType: 
      fields: []
      values: []
      special: Layer
      uniObj: {fileID: 0}
    - refId: 50
      type: System.Guid, mscorlib, Version=4.0.0.0, Culture=neutral, PublicKeyToken=b77a5c561934e089
      altType: 
      fields: []
      values: []
      special: 6536ded2-a6b1-41cf-8255-d209d1e76140
      uniObj: {fileID: 0}
    - refId: 51
      type: UnityEngine.Vector2, UnityEngine.CoreModule, Version=0.0.0.0, Culture=neutral,
        PublicKeyToken=null
      altType: 
      fields:
      - x
      - y
      values:
      - t: 2
        v: 1130261944
      - t: 2
        v: 3267907914
      special: 
      uniObj: {fileID: 0}
    - refId: 52
      type: UnityEngine.Vector2, UnityEngine.CoreModule, Version=0.0.0.0, Culture=neutral,
        PublicKeyToken=null
      altType: 
      fields:
      - x
      - y
      values:
      - t: 2
        v: 1124204544
      - t: 2
        v: 1126236160
      special: 
      uniObj: {fileID: 0}
    - refId: 53
      type: MapMagic.Nodes.MatrixGenerators.Cavity200, MapMagic, Version=0.0.0.0,
        Culture=neutral, PublicKeyToken=null
      altType: MapMagic.Nodes.Placeholders+InletOutletPlaceholder, MapMagic, Version=0.0.0.0,
        Culture=neutral, PublicKeyToken=null
      fields:
      - type
      - intensity
      - spread
      - enabled
      - guid
      - draftTime
      - mainTime
      - guiPosition
      - guiSize
      - guiPreview
      values:
      - t: 255
        v: 54
      - t: 2
        v: 1082130432
      - t: 2
        v: 1092616192
      - t: 3
        v: 1
      - t: 255
        v: 55
      - t: 9
        v: 4598425619684558216
      - t: 9
        v: 4620908320859331179
      - t: 255
        v: 56
      - t: 255
        v: 57
      - t: 3
        v: 1
      special: 
      uniObj: {fileID: 0}
    - refId: 54
      type: MapMagic.Nodes.MatrixGenerators.Cavity200+CavityType, MapMagic, Version=0.0.0.0,
        Culture=neutral, PublicKeyToken=null
      altType: 
      fields:
      - value__
      values:
      - t: 1
        v: 1
      special: 
      uniObj: {fileID: 0}
    - refId: 55
      type: System.Guid, mscorlib, Version=4.0.0.0, Culture=neutral, PublicKeyToken=b77a5c561934e089
      altType: 
      fields: []
      values: []
      special: c7afaa7c-e5d5-476a-a5f2-ae055155ae7c
      uniObj: {fileID: 0}
    - refId: 56
      type: UnityEngine.Vector2, UnityEngine.CoreModule, Version=0.0.0.0, Culture=neutral,
        PublicKeyToken=null
      altType: 
      fields:
      - x
      - y
      values:
      - t: 2
        v: 3251684092
      - t: 2
        v: 3220426496
      special: 
      uniObj: {fileID: 0}
    - refId: 57
      type: UnityEngine.Vector2, UnityEngine.CoreModule, Version=0.0.0.0, Culture=neutral,
        PublicKeyToken=null
      altType: 
      fields:
      - x
      - y
      values:
      - t: 2
        v: 1124204544
      - t: 2
        v: 1129971712
      special: 
      uniObj: {fileID: 0}
    - refId: 58
      type: MapMagic.Nodes.MatrixGenerators.Contrast200, MapMagic, Version=0.0.0.0,
        Culture=neutral, PublicKeyToken=null
      altType: MapMagic.Nodes.Placeholders+InletOutletPlaceholder, MapMagic, Version=0.0.0.0,
        Culture=neutral, PublicKeyToken=null
      fields:
      - brightness
      - contrast
      - enabled
      - guid
      - draftTime
      - mainTime
      - guiPosition
      - guiSize
      - guiPreview
      values:
      - t: 2
        v: 1055957975
      - t: 2
        v: 1065353216
      - t: 3
        v: 1
      - t: 255
        v: 59
      - t: 9
        v: 4581104775517691288
      - t: 9
        v: 4622579494091057686
      - t: 255
        v: 60
      - t: 255
        v: 61
      - t: 3
        v: 0
      special: 
      uniObj: {fileID: 0}
    - refId: 59
      type: System.Guid, mscorlib, Version=4.0.0.0, Culture=neutral, PublicKeyToken=b77a5c561934e089
      altType: 
      fields: []
      values: []
      special: 0acba418-4d7a-4a71-89d8-02f0311084e0
      uniObj: {fileID: 0}
    - refId: 60
      type: UnityEngine.Vector2, UnityEngine.CoreModule, Version=0.0.0.0, Culture=neutral,
        PublicKeyToken=null
      altType: 
      fields:
      - x
      - y
      values:
      - t: 2
        v: 3272015872
      - t: 2
        v: 3279093760
      special: 
      uniObj: {fileID: 0}
    - refId: 61
      type: UnityEngine.Vector2, UnityEngine.CoreModule, Version=0.0.0.0, Culture=neutral,
        PublicKeyToken=null
      altType: 
      fields:
      - x
      - y
      values:
      - t: 2
        v: 1124204544
      - t: 2
        v: 1116471296
      special: 
      uniObj: {fileID: 0}
    - refId: 62
      type: MapMagic.Nodes.IInlet`1[[System.Object, mscorlib, Version=4.0.0.0, Culture=neutral,
        PublicKeyToken=b77a5c561934e089]][], MapMagic, Version=0.0.0.0, Culture=neutral,
        PublicKeyToken=null
      altType: 
      fields: []
      values:
      - t: 255
        v: 20
      - t: 255
        v: 21
      - t: 255
        v: 29
      - t: 255
        v: 19
      - t: 255
        v: 9
      - t: 255
        v: 53
      - t: 255
        v: 58
      special: 
      uniObj: {fileID: 0}
    - refId: 63
      type: MapMagic.Nodes.IOutlet`1[[System.Object, mscorlib, Version=4.0.0.0, Culture=neutral,
        PublicKeyToken=b77a5c561934e089]][], MapMagic, Version=0.0.0.0, Culture=neutral,
        PublicKeyToken=null
      altType: 
      fields: []
      values:
      - t: 255
        v: 3
      - t: 255
        v: 29
      - t: 255
        v: 25
      - t: 255
        v: 14
      - t: 255
        v: 58
      - t: 255
        v: 18
      - t: 255
        v: 18
      special: 
      uniObj: {fileID: 0}
    - refId: 64
      type: MapMagic.Nodes.Group[], MapMagic, Version=0.0.0.0, Culture=neutral, PublicKeyToken=null
      altType: 
      fields: []
      values:
      - t: 255
        v: 65
      special: 
      uniObj: {fileID: 0}
    - refId: 65
      type: MapMagic.Nodes.Group, MapMagic, Version=0.0.0.0, Culture=neutral, PublicKeyToken=null
      altType: 
      fields:
      - name
      - comment
      - color
      - guiPos
      - guiSize
      values:
      - t: 255
        v: 66
      - t: 255
        v: 67
      - t: 255
        v: 68
      - t: 255
        v: 69
      - t: 255
        v: 70
      special: 
      uniObj: {fileID: 0}
    - refId: 66
      type: System.String, mscorlib, Version=4.0.0.0, Culture=neutral, PublicKeyToken=b77a5c561934e089
      altType: 
      fields: []
      values: []
      special: Dunes
      uniObj: {fileID: 0}
    - refId: 67
      type: System.String, mscorlib, Version=4.0.0.0, Culture=neutral, PublicKeyToken=b77a5c561934e089
      altType: 
      fields: []
      values: []
      special: Drag in generators to group them
      uniObj: {fileID: 0}
    - refId: 68
      type: UnityEngine.Color, UnityEngine.CoreModule, Version=0.0.0.0, Culture=neutral,
        PublicKeyToken=null
      altType: 
      fields:
      - r
      - g
      - b
      - a
      values:
      - t: 2
        v: 1059061760
      - t: 2
        v: 1059061760
      - t: 2
        v: 1059061760
      - t: 2
        v: 1065353216
      special: 
      uniObj: {fileID: 0}
    - refId: 69
      type: UnityEngine.Vector2, UnityEngine.CoreModule, Version=0.0.0.0, Culture=neutral,
        PublicKeyToken=null
      altType: 
      fields:
      - x
      - y
      values:
      - t: 2
        v: 3291396164
      - t: 2
        v: 3284669144
      special: 
      uniObj: {fileID: 0}
    - refId: 70
      type: UnityEngine.Vector2, UnityEngine.CoreModule, Version=0.0.0.0, Culture=neutral,
        PublicKeyToken=null
      altType: 
      fields:
      - x
      - y
      values:
      - t: 2
        v: 1141153763
      - t: 2
        v: 1144309764
      special: 
      uniObj: {fileID: 0}
    - refId: 71
      type: MapMagic.Nodes.Exposed, MapMagic, Version=0.0.0.0, Culture=neutral, PublicKeyToken=null
      altType: 
      fields:
      - entries
      values:
      - t: 255
        v: 4294967295
      special: 
      uniObj: {fileID: 0}
