%YAML 1.1
%TAG !u! tag:unity3d.com,2011:
--- !u!114 &11400000
MonoBehaviour:
  m_ObjectHideFlags: 0
  m_CorrespondingSourceObject: {fileID: 0}
  m_PrefabInstance: {fileID: 0}
  m_PrefabAsset: {fileID: 0}
  m_GameObject: {fileID: 0}
  m_Enabled: 1
  m_EditorHideFlags: 0
  m_Script: {fileID: 11500000, guid: c9bc43e142692db4e92eef81e1903ca4, type: 3}
  m_Name: Savanna
  m_EditorClassIdentifier: 
  groups: []
  random:
    seed: 12345
    subSeed: 0
  guiScrollPivot: {x: -435, y: -600.5}
  changeVersion: 4776
  serializedVersion: 0
  serializer200beta:
    serializedData:
    - refId: 0
      type: MapMagic.Nodes.GraphSerializer200Beta+SerializedDataProt, MapMagic, Version=0.0.0.0,
        Culture=neutral, PublicKeyToken=null
      altType: 
      fields:
      - ver
      - generators
      - linkInlets
      - linkOutlets
      - groups
      - exposed
      values:
      - t: 255
        v: 1
      - t: 255
        v: 2
      - t: 255
        v: 50
      - t: 255
        v: 51
      - t: 255
        v: 52
      - t: 255
        v: 53
      special: 
      uniObj: {fileID: 0}
    - refId: 1
      type: Den.Tools.SemVer, Tools, Version=0.0.0.0, Culture=neutral, PublicKeyToken=null
      altType: 
      fields:
      - major
      - minor
      - prt
      - patch
      - hash
      - summary
      values:
      - t: 4
        v: 2
      - t: 4
        v: 0
      - t: 4
        v: 4
      - t: 4
        v: 0
      - t: 1
        v: 262146
      - t: 6
        v: 262146
      special: 
      uniObj: {fileID: 0}
    - refId: 2
      type: MapMagic.Nodes.Generator[], MapMagic, Version=0.0.0.0, Culture=neutral,
        PublicKeyToken=null
      altType: 
      fields: []
      values:
      - t: 255
        v: 3
      - t: 255
        v: 8
      - t: 255
        v: 14
      - t: 255
        v: 18
      - t: 255
        v: 21
      - t: 255
        v: 32
      - t: 255
        v: 36
      - t: 255
        v: 41
      special: 
      uniObj: {fileID: 0}
    - refId: 3
      type: MapMagic.Nodes.MatrixGenerators.HeightOutput200, MapMagic, Version=0.0.0.0,
        Culture=neutral, PublicKeyToken=null
      altType: MapMagic.Nodes.Placeholders+InletOutletPlaceholder, MapMagic, Version=0.0.0.0,
        Culture=neutral, PublicKeyToken=null
      fields:
      - outputLevel
      - guiApplyType
      - enabled
      - guid
      - draftTime
      - mainTime
      - guiPosition
      - guiSize
      - guiPreview
      values:
      - t: 255
        v: 4
      - t: 3
        v: 0
      - t: 3
        v: 1
      - t: 255
        v: 5
      - t: 9
        v: 4565943857732111250
      - t: 9
        v: 4571607584623492386
      - t: 255
        v: 6
      - t: 255
        v: 7
      - t: 3
        v: 0
      special: 
      uniObj: {fileID: 0}
    - refId: 4
      type: MapMagic.Nodes.OutputLevel, MapMagic, Version=0.0.0.0, Culture=neutral,
        PublicKeyToken=null
      altType: 
      fields:
      - value__
      values:
      - t: 1
        v: 3
      special: 
      uniObj: {fileID: 0}
    - refId: 5
      type: System.Guid, mscorlib, Version=4.0.0.0, Culture=neutral, PublicKeyToken=b77a5c561934e089
      altType: 
      fields: []
      values: []
      special: 4c23ee7c-d934-465f-995f-4702cdc443ee
      uniObj: {fileID: 0}
    - refId: 6
      type: UnityEngine.Vector2, UnityEngine.CoreModule, Version=0.0.0.0, Culture=neutral,
        PublicKeyToken=null
      altType: 
      fields:
      - x
      - y
      values:
      - t: 2
        v: 1136292126
      - t: 2
        v: 3290209763
      special: 
      uniObj: {fileID: 0}
    - refId: 7
      type: UnityEngine.Vector2, UnityEngine.CoreModule, Version=0.0.0.0, Culture=neutral,
        PublicKeyToken=null
      altType: 
      fields:
      - x
      - y
      values:
      - t: 2
        v: 1124204544
      - t: 2
        v: 1118044160
      special: 
      uniObj: {fileID: 0}
    - refId: 8
      type: MapMagic.Nodes.MatrixGenerators.Noise200, MapMagic, Version=0.0.0.0, Culture=neutral,
        PublicKeyToken=null
      altType: MapMagic.Nodes.Placeholders+InletOutletPlaceholder, MapMagic, Version=0.0.0.0,
        Culture=neutral, PublicKeyToken=null
      fields:
      - type
      - seed
      - intensity
      - size
      - detail
      - turbulence
      - offset
      - enabled
      - guid
      - draftTime
      - mainTime
      - guiPosition
      - guiSize
      - guiPreview
      values:
      - t: 255
        v: 9
      - t: 1
        v: 12458
      - t: 2
        v: 1065353216
      - t: 2
        v: 1142292480
      - t: 2
        v: 1053609165
      - t: 2
        v: 0
      - t: 255
        v: 10
      - t: 3
        v: 1
      - t: 255
        v: 11
      - t: 9
        v: 4607277895112117663
      - t: 9
        v: 4625521076482670068
      - t: 255
        v: 12
      - t: 255
        v: 13
      - t: 3
        v: 0
      special: 
      uniObj: {fileID: 0}
    - refId: 9
      type: MapMagic.Nodes.MatrixGenerators.Noise200+Type, MapMagic, Version=0.0.0.0,
        Culture=neutral, PublicKeyToken=null
      altType: 
      fields:
      - value__
      values:
      - t: 1
        v: 2
      special: 
      uniObj: {fileID: 0}
    - refId: 10
      type: Den.Tools.Vector2D, Tools, Version=0.0.0.0, Culture=neutral, PublicKeyToken=null
      altType: 
      fields:
      - x
      - z
      values:
      - t: 2
        v: 0
      - t: 2
        v: 0
      special: 
      uniObj: {fileID: 0}
    - refId: 11
      type: System.Guid, mscorlib, Version=4.0.0.0, Culture=neutral, PublicKeyToken=b77a5c561934e089
      altType: 
      fields: []
      values: []
      special: 20dba7e3-c815-4a6d-bac2-53c17761dd96
      uniObj: {fileID: 0}
    - refId: 12
      type: UnityEngine.Vector2, UnityEngine.CoreModule, Version=0.0.0.0, Culture=neutral,
        PublicKeyToken=null
      altType: 
      fields:
      - x
      - y
      values:
      - t: 2
        v: 3277232086
      - t: 2
        v: 3287616561
      special: 
      uniObj: {fileID: 0}
    - refId: 13
      type: UnityEngine.Vector2, UnityEngine.CoreModule, Version=0.0.0.0, Culture=neutral,
        PublicKeyToken=null
      altType: 
      fields:
      - x
      - y
      values:
      - t: 2
        v: 1124204544
      - t: 2
        v: 1127350272
      special: 
      uniObj: {fileID: 0}
    - refId: 14
      type: MapMagic.Nodes.MatrixGenerators.Erosion200, MapMagic, Version=0.0.0.0,
        Culture=neutral, PublicKeyToken=null
      altType: MapMagic.Nodes.Placeholders+InletOutletPlaceholder, MapMagic, Version=0.0.0.0,
        Culture=neutral, PublicKeyToken=null
      fields:
      - iterations
      - terrainDurability
      - erosionAmount
      - sedimentAmount
      - fluidityIterations
      - enabled
      - guid
      - draftTime
      - mainTime
      - guiPosition
      - guiSize
      - guiPreview
      values:
      - t: 1
        v: 5
      - t: 2
        v: 1056964608
      - t: 2
        v: 1065353216
      - t: 2
        v: 1050253722
      - t: 1
        v: 3
      - t: 3
        v: 1
      - t: 255
        v: 15
      - t: 9
        v: 4604477556863818688
      - t: 9
        v: 4636201264482737350
      - t: 255
        v: 16
      - t: 255
        v: 17
      - t: 3
        v: 0
      special: 
      uniObj: {fileID: 0}
    - refId: 15
      type: System.Guid, mscorlib, Version=4.0.0.0, Culture=neutral, PublicKeyToken=b77a5c561934e089
      altType: 
      fields: []
      values: []
      special: 389fc5c7-49c5-48fe-92fa-7b081c361432
      uniObj: {fileID: 0}
    - refId: 16
      type: UnityEngine.Vector2, UnityEngine.CoreModule, Version=0.0.0.0, Culture=neutral,
        PublicKeyToken=null
      altType: 
      fields:
      - x
      - y
      values:
      - t: 2
        v: 1126933770
      - t: 2
        v: 3289260401
      special: 
      uniObj: {fileID: 0}
    - refId: 17
      type: UnityEngine.Vector2, UnityEngine.CoreModule, Version=0.0.0.0, Culture=neutral,
        PublicKeyToken=null
      altType: 
      fields:
      - x
      - y
      values:
      - t: 2
        v: 1124204544
      - t: 2
        v: 1121189888
      special: 
      uniObj: {fileID: 0}
    - refId: 18
      type: MapMagic.Nodes.MatrixGenerators.Noise200, MapMagic, Version=0.0.0.0, Culture=neutral,
        PublicKeyToken=null
      altType: MapMagic.Nodes.Placeholders+InletOutletPlaceholder, MapMagic, Version=0.0.0.0,
        Culture=neutral, PublicKeyToken=null
      fields:
      - type
      - seed
      - intensity
      - size
      - detail
      - turbulence
      - offset
      - enabled
      - guid
      - draftTime
      - mainTime
      - guiPosition
      - guiSize
      - guiPreview
      values:
      - t: 255
        v: 9
      - t: 1
        v: 12259
      - t: 2
        v: 1065353216
      - t: 2
        v: 1137180672
      - t: 2
        v: 0
      - t: 2
        v: 1065353216
      - t: 255
        v: 10
      - t: 3
        v: 1
      - t: 255
        v: 19
      - t: 9
        v: 4608664103077422301
      - t: 9
        v: 4627347567606545514
      - t: 255
        v: 20
      - t: 255
        v: 13
      - t: 3
        v: 0
      special: 
      uniObj: {fileID: 0}
    - refId: 19
      type: System.Guid, mscorlib, Version=4.0.0.0, Culture=neutral, PublicKeyToken=b77a5c561934e089
      altType: 
      fields: []
      values: []
      special: dd0c3b50-cd4c-4fe5-a17e-75c1bccb8cde
      uniObj: {fileID: 0}
    - refId: 20
      type: UnityEngine.Vector2, UnityEngine.CoreModule, Version=0.0.0.0, Culture=neutral,
        PublicKeyToken=null
      altType: 
      fields:
      - x
      - y
      values:
      - t: 2
        v: 3285438870
      - t: 2
        v: 3290176223
      special: 
      uniObj: {fileID: 0}
    - refId: 21
      type: MapMagic.Nodes.MatrixGenerators.Blend200, MapMagic, Version=0.0.0.0, Culture=neutral,
        PublicKeyToken=null
      altType: MapMagic.Nodes.Placeholders+InletOutletPlaceholder, MapMagic, Version=0.0.0.0,
        Culture=neutral, PublicKeyToken=null
      fields:
      - layers
      - enabled
      - guid
      - draftTime
      - mainTime
      - guiPosition
      - guiSize
      - guiPreview
      values:
      - t: 255
        v: 22
      - t: 3
        v: 1
      - t: 255
        v: 29
      - t: 9
        v: 4581220067668151973
      - t: 9
        v: 4597306925537119384
      - t: 255
        v: 30
      - t: 255
        v: 31
      - t: 3
        v: 0
      special: 
      uniObj: {fileID: 0}
    - refId: 22
      type: MapMagic.Nodes.MatrixGenerators.Blend200+Layer[], MapMagic, Version=0.0.0.0,
        Culture=neutral, PublicKeyToken=null
      altType: 
      fields: []
      values:
      - t: 255
        v: 23
      - t: 255
        v: 26
      special: 
      uniObj: {fileID: 0}
    - refId: 23
      type: MapMagic.Nodes.MatrixGenerators.Blend200+Layer, MapMagic, Version=0.0.0.0,
        Culture=neutral, PublicKeyToken=null
      altType: 
      fields:
      - inlet
      - algorithm
      - opacity
      values:
      - t: 255
        v: 24
      - t: 255
        v: 25
      - t: 2
        v: 1065353216
      special: 
      uniObj: {fileID: 0}
    - refId: 24
      type: MapMagic.Nodes.Inlet`1[[Den.Tools.Matrices.MatrixWorld, Tools, Version=0.0.0.0]],
        MapMagic, Version=0.0.0.0
      altType: 
      fields:
      - <Gen>k__BackingField
      values:
      - t: 255
        v: 21
      special: 
      uniObj: {fileID: 0}
    - refId: 25
      type: MapMagic.Nodes.MatrixGenerators.Blend200+BlendAlgorithm, MapMagic, Version=0.0.0.0,
        Culture=neutral, PublicKeyToken=null
      altType: 
      fields:
      - value__
      values:
      - t: 1
        v: 1
      special: 
      uniObj: {fileID: 0}
    - refId: 26
      type: MapMagic.Nodes.MatrixGenerators.Blend200+Layer, MapMagic, Version=0.0.0.0,
        Culture=neutral, PublicKeyToken=null
      altType: 
      fields:
      - inlet
      - algorithm
      - opacity
      values:
      - t: 255
        v: 27
      - t: 255
        v: 28
      - t: 2
        v: 1065353216
      special: 
      uniObj: {fileID: 0}
    - refId: 27
      type: MapMagic.Nodes.Inlet`1[[Den.Tools.Matrices.MatrixWorld, Tools, Version=0.0.0.0]],
        MapMagic, Version=0.0.0.0
      altType: 
      fields:
      - <Gen>k__BackingField
      values:
      - t: 255
        v: 21
      special: 
      uniObj: {fileID: 0}
    - refId: 28
      type: MapMagic.Nodes.MatrixGenerators.Blend200+BlendAlgorithm, MapMagic, Version=0.0.0.0,
        Culture=neutral, PublicKeyToken=null
      altType: 
      fields:
      - value__
      values:
      - t: 1
        v: 2
      special: 
      uniObj: {fileID: 0}
    - refId: 29
      type: System.Guid, mscorlib, Version=4.0.0.0, Culture=neutral, PublicKeyToken=b77a5c561934e089
      altType: 
      fields: []
      values: []
      special: 0dc19974-05cd-4991-96d7-4c3729f48652
      uniObj: {fileID: 0}
    - refId: 30
      type: UnityEngine.Vector2, UnityEngine.CoreModule, Version=0.0.0.0, Culture=neutral,
        PublicKeyToken=null
      altType: 
      fields:
      - x
      - y
      values:
      - t: 2
        v: 3228093120
      - t: 2
        v: 3289161818
      special: 
      uniObj: {fileID: 0}
    - refId: 31
      type: UnityEngine.Vector2, UnityEngine.CoreModule, Version=0.0.0.0, Culture=neutral,
        PublicKeyToken=null
      altType: 
      fields:
      - x
      - y
      values:
      - t: 2
        v: 1124204544
      - t: 2
        v: 1120141312
      special: 
      uniObj: {fileID: 0}
    - refId: 32
      type: MapMagic.Nodes.MatrixGenerators.Contrast200, MapMagic, Version=0.0.0.0,
        Culture=neutral, PublicKeyToken=null
      altType: MapMagic.Nodes.Placeholders+InletOutletPlaceholder, MapMagic, Version=0.0.0.0,
        Culture=neutral, PublicKeyToken=null
      fields:
      - brightness
      - contrast
      - enabled
      - guid
      - draftTime
      - mainTime
      - guiPosition
      - guiSize
      - guiPreview
      values:
      - t: 2
        v: 3212836864
      - t: 2
        v: 1048576000
      - t: 3
        v: 1
      - t: 255
        v: 33
      - t: 9
        v: 4580470668690157522
      - t: 9
        v: 4598295916015289945
      - t: 255
        v: 34
      - t: 255
        v: 35
      - t: 3
        v: 0
      special: 
      uniObj: {fileID: 0}
    - refId: 33
      type: System.Guid, mscorlib, Version=4.0.0.0, Culture=neutral, PublicKeyToken=b77a5c561934e089
      altType: 
      fields: []
      values: []
      special: c4de67ff-695c-45f5-9912-69cb5ae792cf
      uniObj: {fileID: 0}
    - refId: 34
      type: UnityEngine.Vector2, UnityEngine.CoreModule, Version=0.0.0.0, Culture=neutral,
        PublicKeyToken=null
      altType: 
      fields:
      - x
      - y
      values:
      - t: 2
        v: 3277083192
      - t: 2
        v: 3289659217
      special: 
      uniObj: {fileID: 0}
    - refId: 35
      type: UnityEngine.Vector2, UnityEngine.CoreModule, Version=0.0.0.0, Culture=neutral,
        PublicKeyToken=null
      altType: 
      fields:
      - x
      - y
      values:
      - t: 2
        v: 1124204544
      - t: 2
        v: 1116471296
      special: 
      uniObj: {fileID: 0}
    - refId: 36
      type: MapMagic.Nodes.MatrixPortalEnter, MapMagic, Version=0.0.0.0, Culture=neutral,
        PublicKeyToken=null
      altType: MapMagic.Nodes.Placeholders+InletOutletPlaceholder, MapMagic, Version=0.0.0.0,
        Culture=neutral, PublicKeyToken=null
      fields:
      - name
      - enabled
      - guid
      - draftTime
      - mainTime
      - guiPosition
      - guiSize
      - guiPreview
      values:
      - t: 255
        v: 37
      - t: 3
        v: 1
      - t: 255
        v: 38
      - t: 9
        v: 4554169646866313825
      - t: 9
        v: 0
      - t: 255
        v: 39
      - t: 255
        v: 40
      - t: 3
        v: 0
      special: 
      uniObj: {fileID: 0}
    - refId: 37
      type: System.String, mscorlib, Version=4.0.0.0, Culture=neutral, PublicKeyToken=b77a5c561934e089
      altType: 
      fields: []
      values: []
      special: Height
      uniObj: {fileID: 0}
    - refId: 38
      type: System.Guid, mscorlib, Version=4.0.0.0, Culture=neutral, PublicKeyToken=b77a5c561934e089
      altType: 
      fields: []
      values: []
      special: 611c464b-5790-45cc-a859-5419234879b3
      uniObj: {fileID: 0}
    - refId: 39
      type: UnityEngine.Vector2, UnityEngine.CoreModule, Version=0.0.0.0, Culture=neutral,
        PublicKeyToken=null
      altType: 
      fields:
      - x
      - y
      values:
      - t: 2
        v: 1136251525
      - t: 2
        v: 3288768881
      special: 
      uniObj: {fileID: 0}
    - refId: 40
      type: UnityEngine.Vector2, UnityEngine.CoreModule, Version=0.0.0.0, Culture=neutral,
        PublicKeyToken=null
      altType: 
      fields:
      - x
      - y
      values:
      - t: 2
        v: 1124204544
      - t: 2
        v: 1104150528
      special: 
      uniObj: {fileID: 0}
    - refId: 41
      type: MapMagic.Nodes.MatrixGenerators.TexturesOutput200, MapMagic, Version=0.0.0.0,
        Culture=neutral, PublicKeyToken=null
      altType: MapMagic.Nodes.Placeholders+InletOutletPlaceholder, MapMagic, Version=0.0.0.0,
        Culture=neutral, PublicKeyToken=null
      fields:
      - guiExpanded
      - outputLevel
      - layers
      - enabled
      - guid
      - draftTime
      - mainTime
      - guiPosition
      - guiSize
      - guiPreview
      values:
      - t: 1
        v: 0
      - t: 255
        v: 4
      - t: 255
        v: 42
      - t: 3
        v: 1
      - t: 255
        v: 47
      - t: 9
        v: 4596716053266008375
      - t: 9
        v: 4611355003854776173
      - t: 255
        v: 48
      - t: 255
        v: 49
      - t: 3
        v: 0
      special: 
      uniObj: {fileID: 0}
    - refId: 42
      type: MapMagic.Nodes.MatrixGenerators.TexturesOutput200+TextureLayer[], MapMagic,
        Version=0.0.0.0, Culture=neutral, PublicKeyToken=null
      altType: MapMagic.Nodes.Placeholders+InletOutletPlaceholder[], MapMagic, Version=0.0.0.0,
        Culture=neutral, PublicKeyToken=null
      fields: []
      values:
      - t: 255
        v: 43
      special: 
      uniObj: {fileID: 0}
    - refId: 43
      type: MapMagic.Nodes.MatrixGenerators.TexturesOutput200+TextureLayer, MapMagic,
        Version=0.0.0.0, Culture=neutral, PublicKeyToken=null
      altType: MapMagic.Nodes.Placeholders+InletOutletPlaceholder, MapMagic, Version=0.0.0.0,
        Culture=neutral, PublicKeyToken=null
      fields:
      - prototype
      - color
      - guiProperties
      - guiRemapping
      - guiTileSettings
      - name
      - channelNum
      - gen
      values:
      - t: 255
        v: 44
      - t: 255
        v: 45
      - t: 3
        v: 0
      - t: 3
        v: 0
      - t: 3
        v: 0
      - t: 255
        v: 46
      - t: 1
        v: 0
      - t: 255
        v: 41
      special: 
      uniObj: {fileID: 0}
    - refId: 44
      type: UnityEngine.TerrainLayer, UnityEngine.TerrainModule, Version=0.0.0.0,
        Culture=neutral, PublicKeyToken=null
      altType: 
      fields: []
      values: []
      special: 
      uniObj: {fileID: 8574412962073106934, guid: 4be9e989ec137714eba7db1c1f4cbcf3,
        type: 2}
    - refId: 45
      type: UnityEngine.Color, UnityEngine.CoreModule, Version=0.0.0.0, Culture=neutral,
        PublicKeyToken=null
      altType: 
      fields:
      - r
      - g
      - b
      - a
      values:
      - t: 2
        v: 1061158912
      - t: 2
        v: 1061158912
      - t: 2
        v: 1061158912
      - t: 2
        v: 1065353216
      special: 
      uniObj: {fileID: 0}
    - refId: 46
      type: System.String, mscorlib, Version=4.0.0.0, Culture=neutral, PublicKeyToken=b77a5c561934e089
      altType: 
      fields: []
      values: []
      special: Layer
      uniObj: {fileID: 0}
    - refId: 47
      type: System.Guid, mscorlib, Version=4.0.0.0, Culture=neutral, PublicKeyToken=b77a5c561934e089
      altType: 
      fields: []
      values: []
      special: db85eaea-ca8e-4553-96b6-784583bbf43a
      uniObj: {fileID: 0}
    - refId: 48
      type: UnityEngine.Vector2, UnityEngine.CoreModule, Version=0.0.0.0, Culture=neutral,
        PublicKeyToken=null
      altType: 
      fields:
      - x
      - y
      values:
      - t: 2
        v: 1141712018
      - t: 2
        v: 3290426807
      special: 
      uniObj: {fileID: 0}
    - refId: 49
      type: UnityEngine.Vector2, UnityEngine.CoreModule, Version=0.0.0.0, Culture=neutral,
        PublicKeyToken=null
      altType: 
      fields:
      - x
      - y
      values:
      - t: 2
        v: 1124204544
      - t: 2
        v: 1126236160
      special: 
      uniObj: {fileID: 0}
    - refId: 50
      type: MapMagic.Nodes.IInlet`1[[System.Object, mscorlib, Version=4.0.0.0, Culture=neutral,
        PublicKeyToken=b77a5c561934e089]][], MapMagic, Version=0.0.0.0, Culture=neutral,
        PublicKeyToken=null
      altType: 
      fields: []
      values:
      - t: 255
        v: 3
      - t: 255
        v: 14
      - t: 255
        v: 24
      - t: 255
        v: 27
      - t: 255
        v: 32
      - t: 255
        v: 36
      special: 
      uniObj: {fileID: 0}
    - refId: 51
      type: MapMagic.Nodes.IOutlet`1[[System.Object, mscorlib, Version=4.0.0.0, Culture=neutral,
        PublicKeyToken=b77a5c561934e089]][], MapMagic, Version=0.0.0.0, Culture=neutral,
        PublicKeyToken=null
      altType: 
      fields: []
      values:
      - t: 255
        v: 14
      - t: 255
        v: 21
      - t: 255
        v: 8
      - t: 255
        v: 32
      - t: 255
        v: 18
      - t: 255
        v: 14
      special: 
      uniObj: {fileID: 0}
    - refId: 52
      type: MapMagic.Nodes.Group[], MapMagic, Version=0.0.0.0, Culture=neutral, PublicKeyToken=null
      altType: 
      fields: []
      values: []
      special: 
      uniObj: {fileID: 0}
    - refId: 53
      type: MapMagic.Nodes.Exposed, MapMagic, Version=0.0.0.0, Culture=neutral, PublicKeyToken=null
      altType: 
      fields:
      - entries
      values:
      - t: 255
        v: 4294967295
      special: 
      uniObj: {fileID: 0}
