%YAML 1.1
%TAG !u! tag:unity3d.com,2011:
--- !u!114 &11400000
MonoBehaviour:
  m_ObjectHideFlags: 0
  m_CorrespondingSourceObject: {fileID: 0}
  m_PrefabInstance: {fileID: 0}
  m_PrefabAsset: {fileID: 0}
  m_GameObject: {fileID: 0}
  m_Enabled: 1
  m_EditorHideFlags: 0
  m_Script: {fileID: 11500000, guid: c9bc43e142692db4e92eef81e1903ca4, type: 3}
  m_Name: TropicalForest
  m_EditorClassIdentifier: 
  groups: []
  random:
    seed: 12345
    subSeed: 0
  guiScrollPivot: {x: 60, y: -59.5}
  changeVersion: 271
  serializedVersion: 0
  serializer200beta:
    serializedData:
    - refId: 0
      type: MapMagic.Nodes.GraphSerializer200Beta+SerializedDataProt, MapMagic, Version=0.0.0.0,
        Culture=neutral, PublicKeyToken=null
      altType: 
      fields:
      - ver
      - generators
      - linkInlets
      - linkOutlets
      - groups
      - exposed
      values:
      - t: 255
        v: 1
      - t: 255
        v: 2
      - t: 255
        v: 47
      - t: 255
        v: 48
      - t: 255
        v: 49
      - t: 255
        v: 50
      special: 
      uniObj: {fileID: 0}
    - refId: 1
      type: Den.Tools.SemVer, Tools, Version=0.0.0.0, Culture=neutral, PublicKeyToken=null
      altType: 
      fields:
      - major
      - minor
      - prt
      - patch
      - hash
      - summary
      values:
      - t: 4
        v: 2
      - t: 4
        v: 0
      - t: 4
        v: 4
      - t: 4
        v: 0
      - t: 1
        v: 262146
      - t: 6
        v: 262146
      special: 
      uniObj: {fileID: 0}
    - refId: 2
      type: MapMagic.Nodes.Generator[], MapMagic, Version=0.0.0.0, Culture=neutral,
        PublicKeyToken=null
      altType: 
      fields: []
      values:
      - t: 255
        v: 3
      - t: 255
        v: 9
      - t: 255
        v: 13
      - t: 255
        v: 18
      - t: 255
        v: 22
      - t: 255
        v: 35
      - t: 255
        v: 39
      - t: 255
        v: 43
      special: 
      uniObj: {fileID: 0}
    - refId: 3
      type: MapMagic.Nodes.MatrixGenerators.Noise200, MapMagic, Version=0.0.0.0, Culture=neutral,
        PublicKeyToken=null
      altType: MapMagic.Nodes.Placeholders+InletOutletPlaceholder, MapMagic, Version=0.0.0.0,
        Culture=neutral, PublicKeyToken=null
      fields:
      - type
      - seed
      - intensity
      - size
      - detail
      - turbulence
      - offset
      - enabled
      - guid
      - draftTime
      - mainTime
      - guiPosition
      - guiSize
      - guiPreview
      values:
      - t: 255
        v: 4
      - t: 1
        v: 12345
      - t: 2
        v: 1066527621
      - t: 2
        v: 1137180672
      - t: 2
        v: 1056964608
      - t: 2
        v: 0
      - t: 255
        v: 5
      - t: 3
        v: 1
      - t: 255
        v: 6
      - t: 9
        v: 4623333452963674849
      - t: 9
        v: 4634410576975899499
      - t: 255
        v: 7
      - t: 255
        v: 8
      - t: 3
        v: 0
      special: 
      uniObj: {fileID: 0}
    - refId: 4
      type: MapMagic.Nodes.MatrixGenerators.Noise200+Type, MapMagic, Version=0.0.0.0,
        Culture=neutral, PublicKeyToken=null
      altType: 
      fields:
      - value__
      values:
      - t: 1
        v: 2
      special: 
      uniObj: {fileID: 0}
    - refId: 5
      type: Den.Tools.Vector2D, Tools, Version=0.0.0.0, Culture=neutral, PublicKeyToken=null
      altType: 
      fields:
      - x
      - z
      values:
      - t: 2
        v: 0
      - t: 2
        v: 0
      special: 
      uniObj: {fileID: 0}
    - refId: 6
      type: System.Guid, mscorlib, Version=4.0.0.0, Culture=neutral, PublicKeyToken=b77a5c561934e089
      altType: 
      fields: []
      values: []
      special: 8badb6d4-2501-4594-91cb-66229aa511a6
      uniObj: {fileID: 0}
    - refId: 7
      type: UnityEngine.Vector2, UnityEngine.CoreModule, Version=0.0.0.0, Culture=neutral,
        PublicKeyToken=null
      altType: 
      fields:
      - x
      - y
      values:
      - t: 2
        v: 3286925312
      - t: 2
        v: 3268018176
      special: 
      uniObj: {fileID: 0}
    - refId: 8
      type: UnityEngine.Vector2, UnityEngine.CoreModule, Version=0.0.0.0, Culture=neutral,
        PublicKeyToken=null
      altType: 
      fields:
      - x
      - y
      values:
      - t: 2
        v: 1124204544
      - t: 2
        v: 1127350272
      special: 
      uniObj: {fileID: 0}
    - refId: 9
      type: MapMagic.Nodes.MatrixGenerators.Erosion200, MapMagic, Version=0.0.0.0,
        Culture=neutral, PublicKeyToken=null
      altType: MapMagic.Nodes.Placeholders+InletOutletPlaceholder, MapMagic, Version=0.0.0.0,
        Culture=neutral, PublicKeyToken=null
      fields:
      - iterations
      - terrainDurability
      - erosionAmount
      - sedimentAmount
      - fluidityIterations
      - enabled
      - guid
      - draftTime
      - mainTime
      - guiPosition
      - guiSize
      - guiPreview
      values:
      - t: 1
        v: 3
      - t: 2
        v: 1063675494
      - t: 2
        v: 1065353216
      - t: 2
        v: 1061158912
      - t: 1
        v: 3
      - t: 3
        v: 1
      - t: 255
        v: 10
      - t: 9
        v: 4604513585660837652
      - t: 9
        v: 4643342084090965787
      - t: 255
        v: 11
      - t: 255
        v: 12
      - t: 3
        v: 0
      special: 
      uniObj: {fileID: 0}
    - refId: 10
      type: System.Guid, mscorlib, Version=4.0.0.0, Culture=neutral, PublicKeyToken=b77a5c561934e089
      altType: 
      fields: []
      values: []
      special: 5cc296cb-e36d-4c44-99c3-2436750f5140
      uniObj: {fileID: 0}
    - refId: 11
      type: UnityEngine.Vector2, UnityEngine.CoreModule, Version=0.0.0.0, Culture=neutral,
        PublicKeyToken=null
      altType: 
      fields:
      - x
      - y
      values:
      - t: 2
        v: 3263954944
      - t: 2
        v: 3267887104
      special: 
      uniObj: {fileID: 0}
    - refId: 12
      type: UnityEngine.Vector2, UnityEngine.CoreModule, Version=0.0.0.0, Culture=neutral,
        PublicKeyToken=null
      altType: 
      fields:
      - x
      - y
      values:
      - t: 2
        v: 1124204544
      - t: 2
        v: 1121189888
      special: 
      uniObj: {fileID: 0}
    - refId: 13
      type: MapMagic.Nodes.MatrixGenerators.HeightOutput200, MapMagic, Version=0.0.0.0,
        Culture=neutral, PublicKeyToken=null
      altType: MapMagic.Nodes.Placeholders+InletOutletPlaceholder, MapMagic, Version=0.0.0.0,
        Culture=neutral, PublicKeyToken=null
      fields:
      - outputLevel
      - guiApplyType
      - enabled
      - guid
      - draftTime
      - mainTime
      - guiPosition
      - guiSize
      - guiPreview
      values:
      - t: 255
        v: 14
      - t: 3
        v: 0
      - t: 3
        v: 1
      - t: 255
        v: 15
      - t: 9
        v: 4572068753225335125
      - t: 9
        v: 4573106382579481287
      - t: 255
        v: 16
      - t: 255
        v: 17
      - t: 3
        v: 0
      special: 
      uniObj: {fileID: 0}
    - refId: 14
      type: MapMagic.Nodes.OutputLevel, MapMagic, Version=0.0.0.0, Culture=neutral,
        PublicKeyToken=null
      altType: 
      fields:
      - value__
      values:
      - t: 1
        v: 3
      special: 
      uniObj: {fileID: 0}
    - refId: 15
      type: System.Guid, mscorlib, Version=4.0.0.0, Culture=neutral, PublicKeyToken=b77a5c561934e089
      altType: 
      fields: []
      values: []
      special: 82c98bc0-2fc3-4312-bcb4-2c6486765ebc
      uniObj: {fileID: 0}
    - refId: 16
      type: UnityEngine.Vector2, UnityEngine.CoreModule, Version=0.0.0.0, Culture=neutral,
        PublicKeyToken=null
      altType: 
      fields:
      - x
      - y
      values:
      - t: 2
        v: 1136164864
      - t: 2
        v: 3273654272
      special: 
      uniObj: {fileID: 0}
    - refId: 17
      type: UnityEngine.Vector2, UnityEngine.CoreModule, Version=0.0.0.0, Culture=neutral,
        PublicKeyToken=null
      altType: 
      fields:
      - x
      - y
      values:
      - t: 2
        v: 1124204544
      - t: 2
        v: 1118044160
      special: 
      uniObj: {fileID: 0}
    - refId: 18
      type: MapMagic.Nodes.MatrixGenerators.Levels200, MapMagic, Version=0.0.0.0,
        Culture=neutral, PublicKeyToken=null
      altType: MapMagic.Nodes.Placeholders+InletOutletPlaceholder, MapMagic, Version=0.0.0.0,
        Culture=neutral, PublicKeyToken=null
      fields:
      - inMin
      - inMax
      - gamma
      - outMin
      - outMax
      - guiParams
      - enabled
      - guid
      - draftTime
      - mainTime
      - guiPosition
      - guiSize
      - guiPreview
      values:
      - t: 2
        v: 0
      - t: 2
        v: 1065353216
      - t: 2
        v: 1070134723
      - t: 2
        v: 0
      - t: 2
        v: 1065353216
      - t: 3
        v: 0
      - t: 3
        v: 1
      - t: 255
        v: 19
      - t: 9
        v: 4591978266458014614
      - t: 9
        v: 4622046380485167704
      - t: 255
        v: 20
      - t: 255
        v: 21
      - t: 3
        v: 0
      special: 
      uniObj: {fileID: 0}
    - refId: 19
      type: System.Guid, mscorlib, Version=4.0.0.0, Culture=neutral, PublicKeyToken=b77a5c561934e089
      altType: 
      fields: []
      values: []
      special: 5ea9c6ca-b24c-475f-b1f9-2245209daa09
      uniObj: {fileID: 0}
    - refId: 20
      type: UnityEngine.Vector2, UnityEngine.CoreModule, Version=0.0.0.0, Culture=neutral,
        PublicKeyToken=null
      altType: 
      fields:
      - x
      - y
      values:
      - t: 2
        v: 3280764928
      - t: 2
        v: 3267887104
      special: 
      uniObj: {fileID: 0}
    - refId: 21
      type: UnityEngine.Vector2, UnityEngine.CoreModule, Version=0.0.0.0, Culture=neutral,
        PublicKeyToken=null
      altType: 
      fields:
      - x
      - y
      values:
      - t: 2
        v: 1124204544
      - t: 2
        v: 1122369536
      special: 
      uniObj: {fileID: 0}
    - refId: 22
      type: MapMagic.Nodes.MatrixGenerators.TexturesOutput200, MapMagic, Version=0.0.0.0,
        Culture=neutral, PublicKeyToken=null
      altType: MapMagic.Nodes.Placeholders+InletOutletPlaceholder, MapMagic, Version=0.0.0.0,
        Culture=neutral, PublicKeyToken=null
      fields:
      - guiExpanded
      - outputLevel
      - layers
      - enabled
      - guid
      - draftTime
      - mainTime
      - guiPosition
      - guiSize
      - guiPreview
      values:
      - t: 1
        v: 0
      - t: 255
        v: 14
      - t: 255
        v: 23
      - t: 3
        v: 1
      - t: 255
        v: 32
      - t: 9
        v: 4599088549549707153
      - t: 9
        v: 4625817722960625428
      - t: 255
        v: 33
      - t: 255
        v: 34
      - t: 3
        v: 0
      special: 
      uniObj: {fileID: 0}
    - refId: 23
      type: MapMagic.Nodes.MatrixGenerators.TexturesOutput200+TextureLayer[], MapMagic,
        Version=0.0.0.0, Culture=neutral, PublicKeyToken=null
      altType: MapMagic.Nodes.Placeholders+InletOutletPlaceholder[], MapMagic, Version=0.0.0.0,
        Culture=neutral, PublicKeyToken=null
      fields: []
      values:
      - t: 255
        v: 24
      - t: 255
        v: 28
      - t: 255
        v: 30
      special: 
      uniObj: {fileID: 0}
    - refId: 24
      type: MapMagic.Nodes.MatrixGenerators.TexturesOutput200+TextureLayer, MapMagic,
        Version=0.0.0.0, Culture=neutral, PublicKeyToken=null
      altType: MapMagic.Nodes.Placeholders+InletOutletPlaceholder, MapMagic, Version=0.0.0.0,
        Culture=neutral, PublicKeyToken=null
      fields:
      - prototype
      - color
      - guiProperties
      - guiRemapping
      - guiTileSettings
      - name
      - channelNum
      - gen
      values:
      - t: 255
        v: 25
      - t: 255
        v: 26
      - t: 3
        v: 0
      - t: 3
        v: 0
      - t: 3
        v: 0
      - t: 255
        v: 27
      - t: 1
        v: 0
      - t: 255
        v: 22
      special: 
      uniObj: {fileID: 0}
    - refId: 25
      type: UnityEngine.TerrainLayer, UnityEngine.TerrainModule, Version=0.0.0.0,
        Culture=neutral, PublicKeyToken=null
      altType: 
      fields: []
      values: []
      special: 
      uniObj: {fileID: 8574412962073106934, guid: c908c7478dcfac54988b5e287db30ba3,
        type: 2}
    - refId: 26
      type: UnityEngine.Color, UnityEngine.CoreModule, Version=0.0.0.0, Culture=neutral,
        PublicKeyToken=null
      altType: 
      fields:
      - r
      - g
      - b
      - a
      values:
      - t: 2
        v: 1061158912
      - t: 2
        v: 1061158912
      - t: 2
        v: 1061158912
      - t: 2
        v: 1065353216
      special: 
      uniObj: {fileID: 0}
    - refId: 27
      type: System.String, mscorlib, Version=4.0.0.0, Culture=neutral, PublicKeyToken=b77a5c561934e089
      altType: 
      fields: []
      values: []
      special: Layer
      uniObj: {fileID: 0}
    - refId: 28
      type: MapMagic.Nodes.MatrixGenerators.TexturesOutput200+TextureLayer, MapMagic,
        Version=0.0.0.0, Culture=neutral, PublicKeyToken=null
      altType: MapMagic.Nodes.Placeholders+InletOutletPlaceholder, MapMagic, Version=0.0.0.0,
        Culture=neutral, PublicKeyToken=null
      fields:
      - prototype
      - color
      - guiProperties
      - guiRemapping
      - guiTileSettings
      - name
      - channelNum
      - gen
      values:
      - t: 255
        v: 29
      - t: 255
        v: 26
      - t: 3
        v: 0
      - t: 3
        v: 0
      - t: 3
        v: 0
      - t: 255
        v: 27
      - t: 1
        v: 0
      - t: 255
        v: 22
      special: 
      uniObj: {fileID: 0}
    - refId: 29
      type: UnityEngine.TerrainLayer, UnityEngine.TerrainModule, Version=0.0.0.0,
        Culture=neutral, PublicKeyToken=null
      altType: 
      fields: []
      values: []
      special: 
      uniObj: {fileID: 8574412962073106934, guid: cf3df7d7519ee014ebecbfe99c6cab3a,
        type: 2}
    - refId: 30
      type: MapMagic.Nodes.MatrixGenerators.TexturesOutput200+TextureLayer, MapMagic,
        Version=0.0.0.0, Culture=neutral, PublicKeyToken=null
      altType: MapMagic.Nodes.Placeholders+InletOutletPlaceholder, MapMagic, Version=0.0.0.0,
        Culture=neutral, PublicKeyToken=null
      fields:
      - prototype
      - color
      - guiProperties
      - guiRemapping
      - guiTileSettings
      - name
      - channelNum
      - gen
      values:
      - t: 255
        v: 31
      - t: 255
        v: 26
      - t: 3
        v: 0
      - t: 3
        v: 0
      - t: 3
        v: 0
      - t: 255
        v: 27
      - t: 1
        v: 0
      - t: 255
        v: 22
      special: 
      uniObj: {fileID: 0}
    - refId: 31
      type: UnityEngine.TerrainLayer, UnityEngine.TerrainModule, Version=0.0.0.0,
        Culture=neutral, PublicKeyToken=null
      altType: 
      fields: []
      values: []
      special: 
      uniObj: {fileID: 8574412962073106934, guid: 240ea90774073d84cb4ef9b3c461e28c,
        type: 2}
    - refId: 32
      type: System.Guid, mscorlib, Version=4.0.0.0, Culture=neutral, PublicKeyToken=b77a5c561934e089
      altType: 
      fields: []
      values: []
      special: c4199c88-c2f5-4bf1-8735-0f37fd07d69f
      uniObj: {fileID: 0}
    - refId: 33
      type: UnityEngine.Vector2, UnityEngine.CoreModule, Version=0.0.0.0, Culture=neutral,
        PublicKeyToken=null
      altType: 
      fields:
      - x
      - y
      values:
      - t: 2
        v: 1137420971
      - t: 2
        v: 3259498496
      special: 
      uniObj: {fileID: 0}
    - refId: 34
      type: UnityEngine.Vector2, UnityEngine.CoreModule, Version=0.0.0.0, Culture=neutral,
        PublicKeyToken=null
      altType: 
      fields:
      - x
      - y
      values:
      - t: 2
        v: 1124204544
      - t: 2
        v: 1130561536
      special: 
      uniObj: {fileID: 0}
    - refId: 35
      type: MapMagic.Nodes.MatrixGenerators.Slope200, MapMagic, Version=0.0.0.0, Culture=neutral,
        PublicKeyToken=null
      altType: MapMagic.Nodes.Placeholders+InletOutletPlaceholder, MapMagic, Version=0.0.0.0,
        Culture=neutral, PublicKeyToken=null
      fields:
      - from
      - to
      - range
      - enabled
      - guid
      - draftTime
      - mainTime
      - guiPosition
      - guiSize
      - guiPreview
      values:
      - t: 2
        v: 1106247680
      - t: 2
        v: 1119092736
      - t: 2
        v: 1106247680
      - t: 3
        v: 1
      - t: 255
        v: 36
      - t: 9
        v: 4592828546067662163
      - t: 9
        v: 4619190479076466046
      - t: 255
        v: 37
      - t: 255
        v: 38
      - t: 3
        v: 0
      special: 
      uniObj: {fileID: 0}
    - refId: 36
      type: System.Guid, mscorlib, Version=4.0.0.0, Culture=neutral, PublicKeyToken=b77a5c561934e089
      altType: 
      fields: []
      values: []
      special: 983ec7a9-31a6-4559-93a9-5795e6d6936f
      uniObj: {fileID: 0}
    - refId: 37
      type: UnityEngine.Vector2, UnityEngine.CoreModule, Version=0.0.0.0, Culture=neutral,
        PublicKeyToken=null
      altType: 
      fields:
      - x
      - y
      values:
      - t: 2
        v: 1124139008
      - t: 2
        v: 1122238464
      special: 
      uniObj: {fileID: 0}
    - refId: 38
      type: UnityEngine.Vector2, UnityEngine.CoreModule, Version=0.0.0.0, Culture=neutral,
        PublicKeyToken=null
      altType: 
      fields:
      - x
      - y
      values:
      - t: 2
        v: 1124204544
      - t: 2
        v: 1118830592
      special: 
      uniObj: {fileID: 0}
    - refId: 39
      type: MapMagic.Nodes.MatrixGenerators.Cavity200, MapMagic, Version=0.0.0.0,
        Culture=neutral, PublicKeyToken=null
      altType: MapMagic.Nodes.Placeholders+InletOutletPlaceholder, MapMagic, Version=0.0.0.0,
        Culture=neutral, PublicKeyToken=null
      fields:
      - type
      - intensity
      - spread
      - enabled
      - guid
      - draftTime
      - mainTime
      - guiPosition
      - guiSize
      - guiPreview
      values:
      - t: 255
        v: 40
      - t: 2
        v: 1077936128
      - t: 2
        v: 1092616192
      - t: 3
        v: 1
      - t: 255
        v: 41
      - t: 9
        v: 4597487069522214204
      - t: 9
        v: 4625595019959051957
      - t: 255
        v: 42
      - t: 255
        v: 38
      - t: 3
        v: 0
      special: 
      uniObj: {fileID: 0}
    - refId: 40
      type: MapMagic.Nodes.MatrixGenerators.Cavity200+CavityType, MapMagic, Version=0.0.0.0,
        Culture=neutral, PublicKeyToken=null
      altType: 
      fields:
      - value__
      values:
      - t: 1
        v: 0
      special: 
      uniObj: {fileID: 0}
    - refId: 41
      type: System.Guid, mscorlib, Version=4.0.0.0, Culture=neutral, PublicKeyToken=b77a5c561934e089
      altType: 
      fields: []
      values: []
      special: 81fcd774-45a2-4592-bcc4-81b71fc44721
      uniObj: {fileID: 0}
    - refId: 42
      type: UnityEngine.Vector2, UnityEngine.CoreModule, Version=0.0.0.0, Culture=neutral,
        PublicKeyToken=null
      altType: 
      fields:
      - x
      - y
      values:
      - t: 2
        v: 1129644032
      - t: 2
        v: 1094713344
      special: 
      uniObj: {fileID: 0}
    - refId: 43
      type: MapMagic.Nodes.MatrixGenerators.Contrast200, MapMagic, Version=0.0.0.0,
        Culture=neutral, PublicKeyToken=null
      altType: MapMagic.Nodes.Placeholders+InletOutletPlaceholder, MapMagic, Version=0.0.0.0,
        Culture=neutral, PublicKeyToken=null
      fields:
      - brightness
      - contrast
      - enabled
      - guid
      - draftTime
      - mainTime
      - guiPosition
      - guiSize
      - guiPreview
      values:
      - t: 2
        v: 1048576000
      - t: 2
        v: 1065353216
      - t: 3
        v: 1
      - t: 255
        v: 44
      - t: 9
        v: 4580845368179154747
      - t: 9
        v: 4607299962750291778
      - t: 255
        v: 45
      - t: 255
        v: 46
      - t: 3
        v: 0
      special: 
      uniObj: {fileID: 0}
    - refId: 44
      type: System.Guid, mscorlib, Version=4.0.0.0, Culture=neutral, PublicKeyToken=b77a5c561934e089
      altType: 
      fields: []
      values: []
      special: 5d145292-9bf9-4fff-b914-33962d17e6ea
      uniObj: {fileID: 0}
    - refId: 45
      type: UnityEngine.Vector2, UnityEngine.CoreModule, Version=0.0.0.0, Culture=neutral,
        PublicKeyToken=null
      altType: 
      fields:
      - x
      - y
      values:
      - t: 2
        v: 1127219200
      - t: 2
        v: 3271819264
      special: 
      uniObj: {fileID: 0}
    - refId: 46
      type: UnityEngine.Vector2, UnityEngine.CoreModule, Version=0.0.0.0, Culture=neutral,
        PublicKeyToken=null
      altType: 
      fields:
      - x
      - y
      values:
      - t: 2
        v: 1124204544
      - t: 2
        v: 1116471296
      special: 
      uniObj: {fileID: 0}
    - refId: 47
      type: MapMagic.Nodes.IInlet`1[[System.Object, mscorlib, Version=4.0.0.0, Culture=neutral,
        PublicKeyToken=b77a5c561934e089]][], MapMagic, Version=0.0.0.0, Culture=neutral,
        PublicKeyToken=null
      altType: 
      fields: []
      values:
      - t: 255
        v: 9
      - t: 255
        v: 13
      - t: 255
        v: 18
      - t: 255
        v: 35
      - t: 255
        v: 28
      - t: 255
        v: 30
      - t: 255
        v: 39
      - t: 255
        v: 43
      special: 
      uniObj: {fileID: 0}
    - refId: 48
      type: MapMagic.Nodes.IOutlet`1[[System.Object, mscorlib, Version=4.0.0.0, Culture=neutral,
        PublicKeyToken=b77a5c561934e089]][], MapMagic, Version=0.0.0.0, Culture=neutral,
        PublicKeyToken=null
      altType: 
      fields: []
      values:
      - t: 255
        v: 18
      - t: 255
        v: 43
      - t: 255
        v: 3
      - t: 255
        v: 9
      - t: 255
        v: 35
      - t: 255
        v: 39
      - t: 255
        v: 9
      - t: 255
        v: 9
      special: 
      uniObj: {fileID: 0}
    - refId: 49
      type: MapMagic.Nodes.Group[], MapMagic, Version=0.0.0.0, Culture=neutral, PublicKeyToken=null
      altType: 
      fields: []
      values: []
      special: 
      uniObj: {fileID: 0}
    - refId: 50
      type: MapMagic.Nodes.Exposed, MapMagic, Version=0.0.0.0, Culture=neutral, PublicKeyToken=null
      altType: 
      fields:
      - entries
      values:
      - t: 255
        v: 4294967295
      special: 
      uniObj: {fileID: 0}
